Taxonomic processing
…
Read in data and extract base taxon to search WoRMS for aphiaID.

taxonomy <- readr::read_tsv(here::here("data", "metadata", "taxonomy.tsv")) %>%
    rowwise %>% 
    do({
        result = as_data_frame(.)
        result$base = get_taxo_base(.) %>% unlist
        result}) 
taxonomy

Source: local data frame [229 x 9]
Groups: <by row>

# A tibble: 229 x 9
   phylum_prey class_prey  order_prey  family_prey genus_prey species_prey
 * <chr>       <chr>       <chr>       <chr>       <chr>      <chr>       
 1 Chordata    Actinopter… Pleuronect… Bothidae    Arnogloss… Arnoglossus…
 2 Chordata    Actinopter… Pleuronect… Pleuronect… Hippoglos… Hippoglosso…
 3 Chordata    Actinopter… Pleuronect… Pleuronect… Pleuronec… Pleuronecte…
 4 Chordata    Actinopter… Pleuronect… Pleuronect… Microstom… Microstomus…
 5 Chordata    Actinopter… Pleuronect… Pleuronect… Limanda    Limanda lim…
 6 Chordata    Actinopter… Pleuronect… Pleuronect… Limanda    <NA>        
 7 Chordata    Actinopter… Pleuronect… Pleuronect… <NA>       <NA>        
 8 Chordata    Actinopter… Pleuronect… Scophthalm… Phrynorho… Phrynorhomb…
 9 Chordata    Actinopter… Pleuronect… <NA>        <NA>       <NA>        
10 Chordata    Actinopter… Perciformes Ammodytidae Ammodytes  Ammodytes m…
# ... with 219 more rows, and 3 more variables: base <chr>,
#   valid_name <chr>, aphiaID <int>

match prey taxonomic data to WoRMS

Search WoRMS for base and append valid_name and aphiaID columns to taxonomy.

taxonomy <- taxonomy %>% worrms_taxonomy()

taxonomy %>% select(base:aphiaID)

Source: local data frame [229 x 3]
Groups: <by row>

# A tibble: 229 x 3
   base                         valid_name                   aphiaID
   <chr>                        <chr>                          <int>
 1 Arnoglossus laterna          Arnoglossus laterna           127126
 2 Hippoglossoides platessoides Hippoglossoides platessoides  127137
 3 Pleuronectes platessa        Pleuronectes platessa         127143
 4 Microstomus kitt             Microstomus kitt              127140
 5 Limanda limanda              Limanda limanda               127139
 6 Limanda                      Limanda                       126117
 7 Pleuronectidae               Pleuronectidae                125579
 8 Phrynorhombus norvegicus     Phrynorhombus norvegicus      127147
 9 Pleuronectiformes            Pleuronectiformes              10331
10 Ammodytes marinus            Ammodytes marinus             126751
# ... with 219 more rows
…
