Bibliography processing
…
Warning: Expected 4 pieces. Missing pieces filled with `NA` in 275 rows [1,
2, 3, 4, 5, 6, 7, 8, 9, 10, 11, 12, 13, 14, 15, 16, 17, 18, 19, 20, ...].

ref_sep %>%    
    DT::datatable()

ref <- ref_sep %>% distinct(ref_valid) %>%
    mutate(ref_id = get_ref_code(1:nrow(.), type = "ref")) %>%
    select(ref_id, ref_valid) %>%
    distinct()  

ref

# A tibble: 97 x 2
   ref_id     ref_valid                                                   
   <S3: glue> <chr>                                                       
 1 REF001     Anderson et al 2014 Ibis 156, 23-34                         
 2 REF002     Bailey et al 1991 ICES Mar. Sci. Symp., 193, 209-216        
 3 REF003     Baker et 1999 JNCC Report 289, 1-51                         
 4 REF004     Blake BF 1984 J. Experimental. Mar.Biol. Ecol. 76, 89-103   
 5 REF005     Blake et al 1955 Estuarine, Coastal & Shelf Science 20, 559…
 6 REF006     Blake et al 1980 Unpubl NCC Report                          
 7 REF007     Blake et al 1985 Estuarine, Coastal & Shelf Science 20, 559…
 8 REF008     Bull et al 2004 Ardea 92, 43-52                             
 9 REF009     Camphuysen & van Franeker 1996 Sula 10: 143-150             
10 REF010     Chivers 2012 Bird Study 59, 363-367                         
# ... with 87 more rows
…
out <- crfields[,] %>% 
    rowwise %>%
    do({query_works(., limit = 10)})

Clearly not worth any of this effort for the returns

out

Source: local data frame [98 x 10]
Groups: <by row>

# A tibble: 98 x 10
   reference    author  author_f  year container volume issue pages doi   
 * <chr>        <chr>   <chr>    <dbl> <chr>     <chr>  <chr> <chr> <chr> 
 1 Anderson et… <NA>    <NA>       NA  <NA>      <NA>   <NA>  <NA>  <NA>  
 2 Bailey et a… <NA>    <NA>       NA  <NA>      <NA>   <NA>  <NA>  <NA>  
 3 Baker et 19… <NA>    <NA>       NA  <NA>      <NA>   <NA>  <NA>  <NA>  
 4 Blake BF 19… <NA>    <NA>       NA  <NA>      <NA>   <NA>  <NA>  <NA>  
 5 Blake et al… <NA>    <NA>       NA  <NA>      <NA>   <NA>  <NA>  <NA>  
 6 Blake et al… <NA>    <NA>       NA  <NA>      <NA>   <NA>  <NA>  <NA>  
 7 Blake et al… <NA>    <NA>       NA  <NA>      <NA>   <NA>  <NA>  <NA>  
 8 Bull et al … <NA>    <NA>       NA  <NA>      <NA>   <NA>  <NA>  <NA>  
 9 Camphuysen … <NA>    <NA>       NA  <NA>      <NA>   <NA>  <NA>  <NA>  
10 Chivers 201… Chiver… Chivers  2012. Bird Stu… 59     3     363-… 10.10…
# ... with 88 more rows, and 1 more variable: title <chr>
…
