Taxonomic processing
…
Read in data and extract base taxon to search WoRMS for aphiaID.

taxonomy <- readr::read_tsv(here::here("data-raw", "taxonomy.tsv")) %>%
    rowwise %>% 
    do({
        result = as_data_frame(.)
        result$base = get_taxo_base(.) %>% unlist
        result}) 
taxonomy

Source: local data frame [229 x 7]
Groups: <by row>

# A tibble: 229 x 7
   phylum_prey class_prey  order_prey  family_prey genus_prey species_prey
 * <chr>       <chr>       <chr>       <chr>       <chr>      <chr>       
 1 Chordata    Actinopter… Pleuronect… Bothidae    Arnogloss… Arnoglossus…
 2 Chordata    Actinopter… Pleuronect… Pleuronect… Hippoglos… Hippoglosso…
 3 Chordata    Actinopter… Pleuronect… Pleuronect… Pleuronec… Pleuronecte…
 4 Chordata    Actinopter… Pleuronect… Pleuronect… Microstom… Microstomus…
 5 Chordata    Actinopter… Pleuronect… Pleuronect… Limanda    Limanda lim…
 6 Chordata    Actinopter… Pleuronect… Pleuronect… Limanda    <NA>        
 7 Chordata    Actinopter… Pleuronect… Pleuronect… <NA>       <NA>        
 8 Chordata    Actinopter… Pleuronect… Scophthalm… Phrynorho… Phrynorhomb…
 9 Chordata    Actinopter… Pleuronect… <NA>        <NA>       <NA>        
10 Chordata    Actinopter… Perciformes Ammodytidae Ammodytes  Ammodytes m…
# ... with 219 more rows, and 1 more variable: base <chr>

match prey taxonomic data to WoRMS

Search WoRMS for base and append valid_name and aphiaID columns to taxonomy.

taxonomy <- taxonomy %>% worrms_taxonomy()

taxonomy %>% select(base:aphiaID)

Source: local data frame [229 x 3]
Groups: <by row>

# A tibble: 229 x 3
   base                         valid_name                   aphiaID
   <chr>                        <chr>                          <int>
 1 Arnoglossus laterna          Arnoglossus laterna           127126
 2 Hippoglossoides platessoides Hippoglossoides platessoides  127137
 3 Pleuronectes platessa        Pleuronectes platessa         127143
 4 Microstomus kitt             Microstomus kitt              127140
 5 Limanda limanda              Limanda limanda               127139
 6 Limanda                      Limanda                       126117
 7 Pleuronectidae               Pleuronectidae                125579
 8 Phrynorhombus norvegicus     Phrynorhombus norvegicus      127147
 9 Pleuronectiformes            Pleuronectiformes              10331
10 Ammodytes marinus            Ammodytes marinus             126751
# ... with 219 more rows
…
seabirddiet <- readr::read_csv(
    here::here("data-raw", 
               "Seabird Diets British Isles revised 20180620.csv")) %>% 
    janitor::clean_names() %>%
    bind_cols(ID =  1:nrow(.), .) %>% 
    mutate(species = plyr::revalue(prey_species, taxo_recode))

dat_tax <- seabirddiet %>% left_join(
    select(taxonomy, base_name:valid_aphiaID),
           by = c("prey_species" = "base_name")) 
dat_tax

# A tibble: 2,923 x 27
      ID common_name  species   year  startyear endyear location  latitude
   <int> <chr>        <chr>     <chr>     <int>   <int> <chr>        <dbl>
 1     1 Atlantic pu… Ammodyti… 1961…      1961    1963 Farne Is…     55.6
 2     2 Atlantic pu… Clupeidae 1961…      1961    1963 Farne Is…     55.6
 3     3 Atlantic pu… Gasteros… 1961…      1961    1963 Farne Is…     55.6
 4     4 Atlantic pu… Trachini… 1961…      1961    1963 Farne Is…     55.6
 5     5 Atlantic pu… Nereidid… 1975       1975    1975 Farne Is…     55.6
 6     6 Atlantic pu… Ammodyti… 1975       1975    1975 Farne Is…     55.6
 7     7 Atlantic pu… Clupeidae 1983       1983    1983 East Ang…     52.5
 8     8 Atlantic pu… Ammodyti… 1983       1983    1983 East Ang…     52.5
 9     9 Atlantic pu… Polychae… 1983       1983    1983 East Ang…     52.5
10    10 Atlantic pu… <NA>      1973       1973    1973 Isle of …     56.2
# ... with 2,913 more rows, and 19 more variables: longitude <dbl>,
#   breeding_status <chr>, age_group <chr>, prey_type <chr>,
#   prey_species <chr>, fo_o <dbl>, num_freq <dbl>, freq_biomass <chr>,
#   prey_size <chr>, sd <chr>, sample_size <int>, sample_type <chr>,
#   source <chr>, reference <chr>, notes <chr>, base_rank <chr>,
#   aphiaID <int>, valid_name <chr>, valid_aphiaID <int>
…
